<svg width="95px" height="43px" viewBox="0 0 95 43" version="1.1" xmlns="http://www.w3.org/2000/svg" xmlns:xlink="http://www.w3.org/1999/xlink">
    <!-- Generator: Sketch 47.1 (45422) - http://www.bohemiancoding.com/sketch -->
    <desc>Created with Sketch.</desc>
    <defs></defs>
    <g id="Page-1" stroke="none" stroke-width="1" fill="none" fill-rule="evenodd">
        <g id="V2" transform="translate(-105.000000, -31.000000)">
            <g id="Page-1" transform="translate(105.000000, 31.000000)">
                <path d="M45,10.067 L45.0005,10.067 C45.096,10.05 45.1865,10.024 45.2785,10 C45.1865,10.024 45.096,10.05 45,10.067" id="Fill-1" fill="#FCBD19"></path>
                <path d="M45,10.0145 C45.0125,10.0105 45.024,10.004 45.036,10 C45.024,10.004 45.0125,10.0105 45,10.0145" id="Fill-3" fill="#FCBD19"></path>
                <path d="M45.0490307,9.98048956 C45.0445378,9.98225217 45.0402321,9.98460231 45.035552,9.98616908 C45.0402321,9.98460231 45.0445378,9.98225217 45.0490307,9.98048956 L45.0490307,9.98048956 Z M44.8730597,10.0269049 C44.9090027,10.0202462 44.9428865,10.0100622 44.9771447,10.0008575 C44.9428865,10.0100622 44.9090027,10.0202462 44.8732469,10.0269049 L44.8730597,10.0269049 Z M55,4.80253096 L51.8564851,1.06207817 C51.1990277,0.279283795 50.413149,-0.147267657 49.3513329,0.0464235212 C48.1983488,0.25695741 47.6627607,1.13160332 47.3529395,2.43632589 L45.8281701,8.8980516 L46.3072229,6.86125863 C46.2252279,7.19262918 46.133124,7.31894951 45.9667004,7.34930556 C45.8068289,7.37848653 45.6370357,7.25392881 45.3208496,6.84265331 L44.9428865,6.35676067 L40.4983099,1.26438655 C39.5250409,1.49372161 38.8535432,2.51466408 39.0274549,3.5577371 C39.0946609,3.96098294 39.3026435,4.31879263 39.6141495,4.69814532 L44.1223752,9.78425239 L44.3900757,10.0979968 C44.9646021,10.7705302 45.6520119,11.1318651 46.6172313,10.9556042 C47.8550183,10.7299902 48.389296,9.74762928 48.661115,8.60545846 L49.6551636,4.40594387 C49.7465187,4.06282259 49.8584662,3.67661531 50.0819867,3.63587945 C50.2789244,3.60003972 50.4376726,3.76024132 50.5398855,3.88323228 L51.6954904,5.26746812 C52.2175999,5.89750303 52.8159011,6.21947299 53.6053367,6.07552657 C54.342917,5.94078488 54.8116737,5.35383598 55,4.80253096 L55,4.80253096 Z" id="Fill-5" fill="#FCBD19"></path>
                <path d="M9.63474633,17.0848031 C8.93227546,16.6704175 8.00587622,16.286805 7.1095801,16.281262 C6.62909546,16.2782038 6.08374345,16.4007228 5.793394,16.6828414 C5.63239086,16.8393828 5.50207349,17.0903461 5.50071399,17.3114919 C5.49877185,17.6261038 5.72211758,17.8170499 5.94507489,17.9445385 C6.26436217,18.1352935 6.74426417,18.233538 7.31952508,18.4260133 L8.53394321,18.8121105 C9.33332671,19.068999 10.164367,19.3897273 10.8963584,20.0560318 C11.7244855,20.8180961 12.006678,21.6705683 11.9998805,22.7422749 C11.9878393,24.6022316 11.1478651,25.7951193 10.502493,26.4214761 C9.0847332,27.7997669 7.35331826,28.0092534 5.84777383,27.9996965 C3.92661213,27.9876548 1.84755472,27.5646681 0,25.9455443 L1.97379361,22.9003455 C2.41970821,23.2814732 3.05731171,23.7270141 3.53643686,23.9502624 C4.174623,24.2698439 4.8462139,24.3998173 5.45468535,24.4038312 C5.74328687,24.4055514 6.47955093,24.4101387 6.89827562,24.097247 C7.18823664,23.8787771 7.3822561,23.5330098 7.38458666,23.1860957 C7.38614037,22.9343679 7.29233517,22.6182269 6.87749475,22.363632 C6.55879011,22.1721125 6.14317284,22.0434771 5.47138773,21.8506196 L4.32067169,21.4962511 C3.49001979,21.2391715 2.62771106,20.7922926 2.02331809,20.1890634 C1.3546404,19.4917946 1.00796899,18.7018243 1.01496068,17.6295443 C1.02370029,16.2745722 1.57546135,15.1426574 2.41271652,14.3916791 C3.70190691,13.2337695 5.4327392,12.9919809 6.74620631,13.0001998 C8.86022219,13.0133883 10.3300313,13.5587029 11.478611,14.2284478 L9.63474633,17.0848031 Z" id="Fill-7" fill="#003A70"></path>
                <path d="M24.8489077,18.5987467 C24.8185239,18.4726497 24.6045081,17.5888247 23.9508769,16.9547099 C23.4527727,16.4787895 22.7349558,16.1587707 21.8264806,16.152848 C20.6671493,16.1453968 19.9755384,16.613675 19.5344038,17.0521485 C19.1872691,17.4281467 18.8710878,17.9304328 18.7421466,18.5595802 L24.8489077,18.5987467 Z M28.996864,21.3356236 L18.5678197,21.268754 C18.5630722,22.0245715 18.838995,23.0346845 19.3984364,23.6682261 C20.0822615,24.4292021 21.0213103,24.5610307 21.7106425,24.565425 C22.3680716,24.5698193 23.0575936,24.4483077 23.5293019,24.1674554 C23.5919684,24.1363132 24.1265332,23.7935588 24.5074699,23.0081277 L28.7642382,23.4765969 C28.1248494,25.4576564 26.8658213,26.4893587 26.0479278,26.9882059 C24.6966089,27.7990475 23.1920419,28.0097822 21.6255679,27.9996562 C19.5275675,27.9862823 17.682702,27.596146 16.063816,25.9473329 C14.8507434,24.7110096 13.9853752,22.8459211 14.0001873,20.5140829 C14.0129105,18.4976781 14.7468688,16.4228101 16.1648421,14.982439 C17.8670936,13.2921668 19.9673728,12.9902983 21.5330872,13.0002332 C23.0988016,13.0103592 25.352329,13.3087886 27.0629361,15.1469382 C28.7112565,16.9224215 29.0107266,19.1295002 28.9997125,20.8631422 L28.996864,21.3356236 Z" id="Fill-9" fill="#003A70"></path>
                <path d="M32.0869985,13.3038723 L36.4929418,13.3339804 L36.4794005,15.6363505 C36.8813742,14.8166533 37.4981543,14.0641509 38.2043444,13.6093396 C38.9409561,13.1210306 39.7068764,12.9942178 40.5635052,13.0001995 C41.1142481,13.0037886 41.5117698,13.0729773 42,13.2406653 L41.7288022,17.6779169 C41.1494927,17.3455318 40.5084123,17.1433491 39.743234,17.1379655 C38.7949693,17.1313856 38.0895212,17.4884952 37.5352539,18.1095988 C36.5497041,19.2208059 36.4486078,20.798389 36.4413734,22.0483724 L36.4057579,28 L32,27.9698919 L32.0869985,13.3038723 Z" id="Fill-11" fill="#003A70"></path>
                <polygon id="Fill-13" fill="#003A70" points="50 14.0307306 49.9029647 29 45 28.9690659 45.0970353 14"></polygon>
                <path d="M57.7015128,17.9070189 C57.2280848,18.3766308 56.6569623,19.1918603 56.6489639,20.4524378 C56.6409655,21.7132064 57.16943,22.5355049 57.5750622,22.9793245 C58.1995073,23.6445762 59.1697871,24.0922169 60.2381423,24.0989038 C61.1484343,24.1046354 61.9989288,23.7318881 62.5993787,23.1373266 C63.1994477,22.5740979 63.7077258,21.6948652 63.7153433,20.4979088 C63.7216278,19.4895232 63.351417,18.5417019 62.6953593,17.9075921 C62.0088316,17.2417672 61.0059869,16.9198404 60.1891998,16.9146819 C59.2153017,16.9083771 58.302534,17.3124573 57.7015128,17.9070189 L57.7015128,17.9070189 Z M63.4774867,13.5009203 L68,13.5301516 L67.9104943,27.5827824 L63.387981,27.5537421 L63.3990264,25.8525929 C62.161753,27.7346707 60.4015378,28.0073054 59.2396777,27.9998543 C57.2294179,27.9870537 55.5364272,27.4719708 54.0079746,25.8239348 C52.5417951,24.2393288 51.9881929,22.4078805 52.0001905,20.5485382 C52.015235,18.1859584 52.9074354,16.17511 54.2029827,14.8912238 C55.4360665,13.6705767 57.1361034,12.9877479 59.0835188,13.0001665 C60.2773724,13.0078087 62.1906995,13.3039431 63.4673935,15.0765467 L63.4774867,13.5009203 Z" id="Fill-15" fill="#003A70"></path>
                <path d="M72.0873432,14.3336038 L76.5000336,14.3637159 L76.489441,16.0951641 C77.8492075,14.2749644 79.4446148,13.9914744 80.7320909,14.0001911 C81.9275778,14.0083134 83.4891629,14.2480219 84.6459958,15.4972796 C85.9252951,16.878476 86.0066915,18.6105185 85.9996297,19.7864769 L85.9444363,29 L81.5311883,28.9698879 L81.5761608,21.4884073 C81.5817359,20.5408653 81.5583205,19.3320213 80.8575306,18.5754537 C80.5232105,18.2135137 79.97332,17.9161563 79.1762667,17.9108074 C78.2565613,17.904468 77.6721052,18.2927562 77.3325817,18.6818368 C76.5925803,19.4613846 76.463238,20.5059986 76.4576629,21.4535406 L76.4126904,28.9350212 L72,28.9051071 L72.0873432,14.3336038 Z" id="Fill-17" fill="#003A70"></path>
                <polygon id="Fill-19" fill="#003A70" points="95 14.0309341 94.9031712 29 90 28.9690659 90.0970353 14"></polygon>
                <path d="M5.32459943,38.0592866 C4.88294062,37.4519066 4.18171536,37.1342895 3.42827521,37.1342895 C2.38944392,37.1342895 1.71423186,37.8382572 1.71423186,38.790908 C1.71423186,39.7297321 2.38944392,40.4341005 3.42827521,40.4341005 C4.18171536,40.4341005 4.88294062,40.1301099 5.32459943,39.5227299 L5.32459943,38.0592866 Z M5.32459943,40.0473491 C4.76606975,40.6964102 4.06484449,41 3.19472196,41 C2.11668238,41 1,40.2130711 1,38.7772816 C1,37.3274648 2.10386428,36.56839 3.19472196,36.56839 C4.06484449,36.56839 4.77888784,36.8717795 5.32459943,37.5206401 L5.32459943,36.1680121 C5.32459943,35.1738807 4.57115928,34.6352342 3.63600377,34.6352342 C2.85711593,34.6352342 2.24674835,34.9251975 1.67521206,35.6157392 L1.29877474,35.1183728 C1.94797361,34.3729245 2.67521206,34 3.71423186,34 C4.9868049,34 6,34.649061 6,36.140158 L6,40.8344784 L5.32459943,40.8344784 L5.32459943,40.0473491 Z" id="Fill-21" fill="#231F20"></path>
                <path d="M8.42236811,39.412115 C8.84453848,39.9507615 9.62125287,40.3926199 10.5474571,40.3926199 C11.6512299,40.3926199 12.3049514,39.840347 12.3049514,39.0670445 C12.3049514,38.2109813 11.4058372,37.962699 10.4657913,37.7142162 C9.36241398,37.4376789 8.14968757,37.147916 8.14968757,35.8503951 C8.14968757,34.8286099 9.00806771,34 10.4932769,34 C11.6237444,34 12.3731709,34.4418585 12.849917,34.980505 L12.4550344,35.4912974 C12.0732026,34.9666781 11.3651032,34.6075804 10.4932769,34.6075804 C9.47136756,34.6075804 8.84453848,35.1183728 8.84453848,35.8089145 C8.84453848,36.56839 9.6892747,36.7751918 10.6022305,37.0100481 C11.7326979,37.2998111 13,37.6174281 13,39.0397916 C13,40.1164835 12.1821561,41 10.5338132,41 C9.47136756,41 8.65391916,40.6823829 8,39.9507615 L8.42236811,39.412115 Z" id="Fill-23" fill="#231F20"></path>
                <path d="M14.4225658,39.412115 C14.8447362,39.9507615 15.6212529,40.3926199 16.5474571,40.3926199 C17.6512299,40.3926199 18.3051491,39.840347 18.3051491,39.0670445 C18.3051491,38.2109813 17.4058372,37.962699 16.4659891,37.7142162 C15.362414,37.4376789 14.1496876,37.147916 14.1496876,35.8503951 C14.1496876,34.8286099 15.0080677,34 16.4934747,34 C17.6237444,34 18.3731709,34.4418585 18.8503124,34.980505 L18.4552321,35.4912974 C18.0734003,34.9666781 17.365301,34.6075804 16.4934747,34.6075804 C15.4715653,34.6075804 14.8447362,35.1183728 14.8447362,35.8089145 C14.8447362,36.56839 15.6894724,36.7751918 16.6022305,37.0100481 C17.7328957,37.2998111 19,37.6174281 19,39.0397916 C19,40.1164835 18.1823539,41 16.5340109,41 C15.4715653,41 14.6541169,40.6823829 14,39.9507615 L14.4225658,39.412115 Z" id="Fill-25" fill="#231F20"></path>
                <path d="M21.7418065,37.1620337 L26.3101407,37.1620337 C26.2971067,36.0298016 25.5942134,34.6214251 24.019551,34.6214251 C22.535938,34.6214251 21.7941315,36.0019467 21.7418065,37.1620337 M24.0323962,34 C25.9455656,34 27,35.615585 27,37.5343678 L27,37.7279494 L21.7418065,37.7279494 C21.8071656,39.1776073 22.7180367,40.3789757 24.2016497,40.3789757 C24.9957813,40.3789757 25.7243648,40.0613495 26.2580046,39.4537517 L26.6095457,39.9232773 C25.9846677,40.6136383 25.190914,41 24.1497025,41 C22.3147373,41 21,39.5505425 21,37.4932868 C21,35.5600756 22.2886692,34 24.0323962,34" id="Fill-27" fill="#231F20"></path>
                <path d="M28.9339207,39.4930901 L28.9339207,34.5552675 L28,34.5552675 L28,33.8948355 L28.9339207,33.8948355 L28.9339207,32 L29.5523551,32 L29.5523551,33.8948355 L30.6963741,33.8948355 L30.6963741,34.5552675 L29.5523551,34.5552675 L29.5523551,39.3780875 C29.5523551,39.9378921 29.7392409,40.3254011 30.1360556,40.3254011 C30.4046086,40.3254011 30.6380888,40.1672724 30.7665198,39.9953934 L31,40.5695734 C30.7782108,40.8279127 30.5096577,41 30.0426974,41 C29.2956625,41 28.9339207,40.4401954 28.9339207,39.4930901" id="Fill-29" fill="#231F20"></path>
                <path d="M45.2535244,36.2203782 C45.2535244,35.2583785 44.8374731,34.6647999 43.8612005,34.6647999 C43.1147249,34.6647999 42.2680386,35.2021404 41.8803213,35.8240434 L41.8803213,41 L41.1196787,41 L41.1196787,36.2203782 C41.1196787,35.2583785 40.7177944,34.6647999 39.7273548,34.6647999 C38.9952545,34.6647999 38.1625269,35.2163026 37.7464756,35.838616 L37.7464756,41 L37,41 L37,34.1697405 L37.7464756,34.1697405 L37.7464756,35.2021404 C38.0335656,34.7637297 38.9810875,34 39.9856941,34 C41.0621774,34 41.6363573,34.6223134 41.808653,35.2869081 C42.1961619,34.6506377 43.1293085,34 44.1051645,34 C45.382694,34 46,34.7072863 46,36.078962 L46,41 L45.2535244,41 L45.2535244,36.2203782 Z" id="Fill-31" fill="#231F20"></path>
                <path d="M51.3247879,38.0592866 C50.8833176,37.4519066 50.1819039,37.1342895 49.4286522,37.1342895 C48.3898209,37.1342895 47.7142319,37.8382572 47.7142319,38.790908 C47.7142319,39.7297321 48.3898209,40.4341005 49.4286522,40.4341005 C50.1819039,40.4341005 50.8833176,40.1301099 51.3247879,39.5227299 L51.3247879,38.0592866 Z M51.3247879,40.0473491 C50.7662582,40.6964102 50.065033,41 49.194722,41 C48.1166824,41 47,40.2130711 47,38.7772816 C47,37.3274648 48.1038643,36.56839 49.194722,36.56839 C50.065033,36.56839 50.7792648,36.8717795 51.3247879,37.5206401 L51.3247879,36.1680121 C51.3247879,35.1738807 50.5715363,34.6352342 49.6365693,34.6352342 C48.8569274,34.6352342 48.2467484,34.9251975 47.6754006,35.6157392 L47.2985862,35.1183728 C47.9479736,34.3729245 48.6752121,34 49.7142319,34 C50.9871819,34 52,34.649061 52,36.140158 L52,40.8344784 L51.3247879,40.8344784 L51.3247879,40.0473491 Z" id="Fill-33" fill="#231F20"></path>
                <path d="M59.3123176,36.3757514 C59.3123176,35.0607242 58.6904853,34.6647999 57.7647443,34.6647999 C56.9445938,34.6647999 56.0979496,35.2165078 55.6878744,35.838616 L55.6878744,41 L55,41 L55,34.1697405 L55.6878744,34.1697405 L55.6878744,35.2021404 C56.1509369,34.6081513 57.0634311,34 57.9895561,34 C59.285632,34 60,34.6787568 60,36.2203782 L60,41 L59.3123176,41 L59.3123176,36.3757514 Z" id="Fill-35" fill="#231F20"></path>
                <path d="M66.3247625,38.0592866 C65.8832755,37.4519066 65.1818353,37.1342895 64.4285553,37.1342895 C63.3896848,37.1342895 62.7140703,37.8382572 62.7140703,38.790908 C62.7140703,39.7297321 63.3896848,40.4341005 64.4285553,40.4341005 C65.1818353,40.4341005 65.8832755,40.1301099 66.3247625,39.5227299 L66.3247625,38.0592866 Z M66.3247625,40.0473491 C65.7662117,40.6964102 65.06496,41 64.1946162,41 C63.116536,41 62,40.2130711 62,38.7772816 C62,37.3274648 63.1037174,36.56839 64.1946162,36.56839 C65.06496,36.56839 65.7792188,36.8717795 66.3247625,37.5206401 L66.3247625,36.1680121 C66.3247625,35.1738807 65.5716709,34.6352342 64.6364802,34.6352342 C63.8568089,34.6352342 63.2467954,34.9251975 62.6752375,35.6157392 L62.298409,35.1183728 C62.9480094,34.3729245 63.6750867,34 64.7141457,34 C65.9871437,34 67,34.649061 67,36.140158 L67,40.8344784 L66.3247625,40.8344784 L66.3247625,40.0473491 Z" id="Fill-37" fill="#231F20"></path>
                <path d="M74.2722442,35.758449 C73.8876416,35.1463379 73.0090338,34.6124892 72.089176,34.6124892 C70.6203129,34.6124892 69.7688067,35.7713037 69.7688067,37.2955324 C69.7688067,38.8191938 70.6203129,39.9653427 72.089176,39.9653427 C73.0090338,39.9653427 73.8876416,39.431305 74.2722442,38.8191938 L74.2722442,35.758449 Z M69.8100568,41.5283245 C70.3869607,42.1793778 71.018267,42.4139763 72.006875,42.4139763 C73.2150852,42.4139763 74.2722442,41.8409965 74.2722442,40.3950304 L74.2722442,39.4052175 C73.8055399,40.0434162 72.954233,40.5772648 71.9656249,40.5772648 C70.2082102,40.5772648 69,39.3141003 69,37.2955324 C69,35.3026739 70.2082102,34 71.9656249,34 C72.9131821,34 73.7365904,34.4559642 74.2722442,35.1724254 L74.2722442,34.156336 L75,34.156336 L75,40.3821756 C75,42.3098154 73.6267893,43 72.006875,43 C70.8949151,43 70.1809094,42.8045328 69.3983527,42.0493184 L69.8100568,41.5283245 Z" id="Fill-39" fill="#231F20"></path>
                <path d="M77.7420188,37.1620337 L82.3103079,37.1620337 C82.2972735,36.0298016 81.5945469,34.6214251 80.0196461,34.6214251 C78.5359864,34.6214251 77.7937787,36.0019467 77.7420188,37.1620337 M80.0326806,34 C81.9457213,34 83,35.615585 83,37.5343678 L83,37.7279494 L77.7420188,37.7279494 C77.807191,39.1776073 78.7180908,40.3789757 80.2017505,40.3789757 C80.9957182,40.3789757 81.7245136,40.0613495 82.2581701,39.4537517 L82.6097223,39.9232773 C81.9848246,40.6136383 81.1910459,41 80.1498016,41 C78.3144009,41 77,39.5505425 77,37.4932868 C77,35.5600756 78.2887098,34 80.0326806,34" id="Fill-41" fill="#231F20"></path>
                <path d="M86,34.1417888 L86.7256464,34.1417888 L86.7256464,35.3204086 C87.2975765,34.5535536 88.0651455,34 89,34 L89,34.8091032 C88.8744346,34.7808691 88.7768177,34.7808691 88.6370755,34.7808691 C87.9535543,34.7808691 87.0328765,35.4057293 86.7256464,36.0019431 L86.7256464,41 L86,41 L86,34.1417888 Z" id="Fill-43" fill="#231F20"></path>
                <path d="M89.4222038,39.412115 C89.8446053,39.9507615 90.6209856,40.3926199 91.5478564,40.3926199 C92.6515187,40.3926199 93.3054896,39.840347 93.3054896,39.0670445 C93.3054896,38.2109813 92.4061066,37.962699 91.4659864,37.7142162 C90.3625218,37.4376789 89.1498972,37.147916 89.1498972,35.8503951 C89.1498972,34.8286099 90.0081474,34 91.4932764,34 C92.624031,34 93.3733191,34.4418585 93.8504983,34.980505 L93.4551891,35.4912974 C93.0739203,34.9666781 92.3651717,34.6075804 91.4932764,34.6075804 C90.4714839,34.6075804 89.8446053,35.1183728 89.8446053,35.8089145 C89.8446053,36.56839 90.6894083,36.7751918 91.6020408,37.0100481 C92.7329932,37.2998111 94,37.6174281 94,39.0397916 C94,40.1164835 93.1828825,41 91.5342114,41 C90.4714839,41 89.6539709,40.6823829 89,39.9507615 L89.4222038,39.412115 Z" id="Fill-45" fill="#231F20"></path>
            </g>
        </g>
    </g>
</svg>