
<svg width="79px" height="36px" viewBox="0 0 79 36" version="1.1" xmlns="http://www.w3.org/2000/svg" xmlns:xlink="http://www.w3.org/1999/xlink">
    <!-- Generator: Sketch 47.1 (45422) - http://www.bohemiancoding.com/sketch -->
    <desc>Created with Sketch.</desc>
    <defs></defs>
    <g id="Page-1" stroke="none" stroke-width="1" fill="none" fill-rule="evenodd">
        <g id="V2" transform="translate(-162.000000, -2982.000000)">
            <g id="Page-1" transform="translate(162.000000, 2982.000000)">
                <path d="M37,8.067 L37.0005,8.067 C37.096,8.05 37.1865,8.024 37.2785,8 C37.1865,8.024 37.096,8.05 37,8.067" id="Fill-1" fill="#FCBD19"></path>
                <path d="M37,8.0145 C37.0125,8.0105 37.024,8.004 37.036,8 C37.024,8.004 37.0125,8.0105 37,8.0145" id="Fill-3" fill="#FCBD19"></path>
                <path d="M36.9148374,8.16585509 C36.911187,8.16729723 36.9076886,8.16922007 36.903886,8.17050197 C36.9076886,8.16922007 36.911187,8.16729723 36.9148374,8.16585509 L36.9148374,8.16585509 Z M36.771861,8.20383131 C36.8010647,8.19838325 36.8285953,8.19005091 36.85643,8.18251976 C36.8285953,8.19005091 36.8010647,8.19838325 36.7720131,8.20383131 L36.771861,8.20383131 Z M45,3.92934351 L42.4458942,0.868973049 C41.91171,0.228504923 41.2731836,-0.120491719 40.410458,0.037982881 C39.4736584,0.210237881 39.0384931,0.925857258 38.7867634,1.99335755 L37.5478882,7.28022404 L37.9371186,5.61375706 C37.8704977,5.88487842 37.7956632,5.98823142 37.6604441,6.01306818 C37.5305485,6.03694353 37.3925915,5.93503266 37.1356903,5.59853452 L36.8285953,5.20098601 L33.2173768,1.03449809 C32.4265957,1.22213586 31.8810039,2.05745243 32.0223071,2.91087581 C32.076912,3.24080422 32.2458979,3.5335576 32.4989965,3.84393708 L36.1619299,8.00529741 L36.3794365,8.26199742 C36.8462392,8.812252 37.4047597,9.10788965 38.1890004,8.96367616 C39.1947024,8.77908289 39.628803,7.97533305 39.8496559,7.04082965 L40.6573204,3.60486316 C40.7315464,3.32412757 40.8225038,3.0081398 41.0041142,2.97481046 C41.1641261,2.94548705 41.293109,3.07656108 41.376157,3.17719005 L42.315086,4.30974665 C42.7393,4.82522975 43.2254197,5.08865972 43.8668361,4.97088537 C44.4661201,4.86064217 44.8469848,4.38041126 45,3.92934351 L45,3.92934351 Z" id="Fill-5" fill="#FCBD19"></path>
                <path d="M8.02895528,14.5401627 C7.44356288,14.1810285 6.67156352,13.8485643 5.92465008,13.8437604 C5.52424622,13.84111 5.06978621,13.9472931 4.82782834,14.1917959 C4.69365905,14.3274651 4.58506124,14.5449666 4.58392833,14.7366263 C4.58230988,15.00929 4.76843132,15.1747766 4.95422907,15.2852667 C5.22030181,15.4505877 5.62022014,15.535733 6.09960424,15.7025448 L7.11161934,16.0371625 C7.77777225,16.2597991 8.47030586,16.5377637 9.08029865,17.1152276 C9.77040459,17.7756833 10.005565,18.5144925 9.99990042,19.4433049 C9.98986604,21.0552674 9.28988758,22.0891034 8.75207754,22.631946 C7.570611,23.8264647 6.12776522,24.0080196 4.87314486,23.999737 C3.27217678,23.9893009 1.53962893,23.6227123 0,22.2194718 L1.644828,19.5802994 C2.01642351,19.9106101 2.54775976,20.2967456 2.94703071,20.4902274 C3.4788525,20.7671981 4.03851158,20.8798416 4.54557112,20.8833203 C4.7860724,20.8848112 5.39962577,20.8887869 5.74856301,20.6176141 C5.9901972,20.4282735 6.15188008,20.1286085 6.15382222,19.8279496 C6.15511698,19.6097855 6.07694597,19.3357966 5.73124563,19.1151478 C5.46565842,18.9491642 5.1193107,18.8376802 4.55948977,18.670537 L3.60055974,18.3634176 C2.90834982,18.1406153 2.18975922,17.7533202 1.68609841,17.2305216 C1.128867,16.626222 0.839974156,15.9415811 0.845800566,15.0122717 C0.853083579,13.8379626 1.31288446,12.8569697 2.0105971,12.2061218 C3.08492242,11.2026002 4.52728267,10.9930501 5.62183859,11.0001731 C7.38351849,11.0116032 8.60835942,11.4842091 9.56550916,12.0646548 L8.02895528,14.5401627 Z" id="Fill-7" fill="#FFFFFF"></path>
                <path d="M20.6791261,15.8522471 C20.6548191,15.7429631 20.4836065,14.9769814 19.9607015,14.4274153 C19.5622182,14.0149509 18.9879646,13.7376013 18.2611845,13.7324683 C17.3337195,13.7260106 16.7804307,14.1318517 16.4275231,14.511862 C16.1498153,14.8377271 15.8968703,15.2730418 15.7937173,15.8183028 L20.6791261,15.8522471 Z M23.9974912,18.2242071 L15.6542557,18.1662535 C15.6504578,18.8212953 15.871196,19.6967265 16.3187491,20.2457959 C16.8658092,20.9053085 17.6170483,21.0195599 18.168514,21.0233683 C18.6944573,21.0271767 19.2460749,20.9218666 19.6234415,20.6784613 C19.6735748,20.6514715 20.1012265,20.3544176 20.4059759,19.6737106 L23.8113905,20.0797173 C23.2998795,21.7966356 22.292657,22.6907776 21.6383422,23.1231118 C20.5572872,23.8258411 19.3536335,24.0084779 18.1004543,23.9997021 C16.422054,23.9881114 14.9461616,23.6499932 13.6510528,22.2210218 C12.6805947,21.1495417 11.9883001,19.5331317 12.0001498,17.5122052 C12.0103284,15.7646543 12.597495,13.9664354 13.7318736,12.7181138 C15.0936749,11.2532112 16.7738982,10.9915919 18.0264698,11.0002021 C19.2790413,11.008978 21.0818632,11.2676168 22.4503489,12.8606798 C23.7690052,14.399432 24.0085813,16.3122335 23.99977,17.8147232 L23.9974912,18.2242071 Z" id="Fill-9" fill="#FFFFFF"></path>
                <path d="M27.0695988,11.263356 L30.5943534,11.2894497 L30.5835204,13.2848371 C30.9050993,12.5744328 31.3985234,11.9222641 31.9634755,11.5280943 C32.5527648,11.1048932 33.1655011,10.9949888 33.8508041,11.0001729 C34.2913985,11.0032834 34.6094159,11.063247 35,11.2085766 L34.7830418,15.0541946 C34.3195941,14.7661275 33.8067299,14.5909025 33.1945872,14.5862368 C32.4359754,14.5805342 31.871617,14.8900292 31.4282031,15.428319 C30.6397633,16.3913651 30.5588863,17.7586038 30.5530987,18.8419227 L30.5246063,24 L27,23.9739063 L27.0695988,11.263356 Z" id="Fill-11" fill="#FFFFFF"></path>
                <polygon id="Fill-13" fill="#FFFFFF" points="41 12.0266332 40.9223718 25 37 24.9731904 37.0776282 12"></polygon>
                <path d="M47.6324792,15.2527497 C47.2478189,15.6597467 46.7837819,16.3662789 46.7772832,17.4587795 C46.7707845,18.5514455 47.2001619,19.2641043 47.529738,19.6487479 C48.0370996,20.2252994 48.825452,20.6132546 49.6934906,20.61905 C50.4331028,20.6240174 51.1241296,20.3009697 51.6119952,19.785683 C52.0995513,19.2975515 52.5125272,18.5355498 52.5187165,17.4981876 C52.5238226,16.6242535 52.2230263,15.8028083 51.6899794,15.2532464 C51.1321756,14.6761982 50.3173644,14.397195 49.6537248,14.3927243 C48.8624326,14.3872601 48.1208089,14.737463 47.6324792,15.2527497 L47.6324792,15.2527497 Z M52.3254579,11.4341309 L56,11.4594647 L55.9272766,23.6384114 L52.2527346,23.6132431 L52.2617089,22.1389139 C51.2564243,23.7700479 49.8262495,24.0063314 48.8822381,23.9998737 C47.248902,23.9887798 45.8733471,23.5423747 44.6314794,22.1140768 C43.4402085,20.7407517 42.9904067,19.1534964 43.0001547,17.5420665 C43.0123785,15.4944973 43.7372913,13.751762 44.7899235,12.6390606 C45.7918041,11.5811665 47.173084,10.9893815 48.755359,11.0001443 C49.7253651,11.0067675 51.2799434,11.2634174 52.3172572,12.7996738 L52.3254579,11.4341309 Z" id="Fill-15" fill="#FFFFFF"></path>
                <path d="M60.0748656,12.2891233 L63.8571717,12.3152205 L63.8480922,13.8158089 C65.0136064,12.2383025 66.3810984,11.9926111 67.4846493,12.0001656 C68.5093524,12.007205 69.8478539,12.2149523 70.839425,13.2976423 C71.9359672,14.4946792 72.0057356,15.9957827 71.9996826,17.0149467 L71.9523739,25 L68.16959,24.9739028 L68.2081378,18.489953 C68.2129165,17.6687499 68.1928461,16.6210851 67.5921691,15.9653932 C67.305609,15.6517119 66.8342743,15.3940021 66.1510858,15.3893664 C65.3627669,15.3838723 64.8618044,15.7203887 64.5707843,16.0575919 C63.9364974,16.7332 63.8256326,17.6385321 63.8208539,18.4597352 L63.7823061,24.943685 L60,24.9177595 L60.0748656,12.2891233 Z" id="Fill-17" fill="#FFFFFF"></path>
                <polygon id="Fill-19" fill="#FFFFFF" points="79 12.0268096 78.922537 25 75 24.9731904 75.0776282 12"></polygon>
                <path d="M4.45967955,31.4793885 C4.1063525,30.9587771 3.54537229,30.6865338 2.94262017,30.6865338 C2.11155514,30.6865338 1.57138549,31.2899347 1.57138549,32.1064926 C1.57138549,32.9111989 2.11155514,33.5149433 2.94262017,33.5149433 C3.54537229,33.5149433 4.1063525,33.2543799 4.45967955,32.7337685 L4.45967955,31.4793885 Z M4.45967955,33.1834421 C4.0128558,33.7397801 3.45187559,34 2.75577757,34 C1.8933459,34 1,33.3254895 1,32.0948128 C1,30.8521127 1.88309142,30.2014772 2.75577757,30.2014772 C3.45187559,30.2014772 4.02311027,30.4615252 4.45967955,31.0176915 L4.45967955,29.8582961 C4.45967955,29.0061834 3.85692743,28.5444864 3.10880302,28.5444864 C2.48569274,28.5444864 1.99739868,28.7930265 1.54016965,29.3849193 L1.23901979,28.9586053 C1.75837889,28.3196496 2.34016965,28 3.17138549,28 C4.18944392,28 5,28.556338 5,29.8344212 L5,33.8581244 L4.45967955,33.8581244 L4.45967955,33.1834421 Z" id="Fill-21" fill-opacity="0.26319067" fill="#FFFFFF"></path>
                <path d="M7.33789449,32.6389557 C7.67563078,33.1006527 8.29700229,33.4793885 9.03796567,33.4793885 C9.92098394,33.4793885 10.4439611,33.0060117 10.4439611,32.343181 C10.4439611,31.6094126 9.72466978,31.3965991 8.97263308,31.1836139 C8.08993119,30.9465819 7.11975006,30.6982137 7.11975006,29.5860529 C7.11975006,28.710237 7.80645416,28 8.99462153,28 C9.89899549,28 10.4985367,28.3787358 10.8799336,28.8404328 L10.5640275,29.2782549 C10.2585621,28.8285812 9.69208258,28.5207832 8.99462153,28.5207832 C8.17709404,28.5207832 7.67563078,28.9586053 7.67563078,29.5504981 C7.67563078,30.2014772 8.35141976,30.3787358 9.08178439,30.5800412 C9.98615835,30.8284095 11,31.1006527 11,32.3198214 C11,33.2427001 10.3457249,34 9.02705054,34 C8.17709404,34 7.52313533,33.7277568 7,33.1006527 L7.33789449,32.6389557 Z" id="Fill-23" fill-opacity="0.26319067" fill="#FFFFFF"></path>
                <path d="M12.3380527,32.6389557 C12.675789,33.1006527 13.2970023,33.4793885 14.0379657,33.4793885 C14.9209839,33.4793885 15.4441193,33.0060117 15.4441193,32.343181 C15.4441193,31.6094126 14.7246698,31.3965991 13.9727913,31.1836139 C13.0899312,30.9465819 12.1197501,30.6982137 12.1197501,29.5860529 C12.1197501,28.710237 12.8064542,28 13.9947797,28 C14.8989955,28 15.4985367,28.3787358 15.8802499,28.8404328 L15.5641857,29.2782549 C15.2587202,28.8285812 14.6922408,28.5207832 13.9947797,28.5207832 C13.1772522,28.5207832 12.675789,28.9586053 12.675789,29.5504981 C12.675789,30.2014772 13.3515779,30.3787358 14.0817844,30.5800412 C14.9863165,30.8284095 16,31.1006527 16,32.3198214 C16,33.2427001 15.3458831,34 14.0272087,34 C13.1772522,34 12.5232935,33.7277568 12,33.1006527 L12.3380527,32.6389557 Z" id="Fill-25" fill-opacity="0.26319067" fill="#FFFFFF"></path>
                <path d="M17.6181721,30.7103146 L21.4251173,30.7103146 C21.4142556,29.73983 20.8285112,28.5326501 19.5162925,28.5326501 C18.2799484,28.5326501 17.6617763,29.7159543 17.6181721,30.7103146 M19.5269968,28 C21.1213047,28 22,29.3847872 22,31.0294581 L22,31.1953852 L17.6181721,31.1953852 C17.672638,32.4379491 18.4316973,33.4676935 19.6680414,33.4676935 C20.3298177,33.4676935 20.9369707,33.1954424 21.3816705,32.6746443 L21.6746214,33.0770948 C21.1538897,33.6688328 20.4924283,34 19.6247521,34 C18.0956144,34 17,32.7576079 17,30.9942458 C17,29.3372076 18.073891,28 19.5269968,28" id="Fill-27" fill-opacity="0.26319067" fill="#FFFFFF"></path>
                <path d="M23.6226138,33.6605245 L23.6226138,29.2713489 L23,29.2713489 L23,28.6842982 L23.6226138,28.6842982 L23.6226138,27 L24.0349034,27 L24.0349034,28.6842982 L24.7975827,28.6842982 L24.7975827,29.2713489 L24.0349034,29.2713489 L24.0349034,33.5583 C24.0349034,34.0559041 24.159494,34.4003565 24.424037,34.4003565 C24.6030724,34.4003565 24.7587259,34.2597977 24.8443465,34.1070164 L25,34.6173986 C24.8521405,34.8470335 24.6731052,35 24.3617983,35 C23.863775,35 23.6226138,34.5023959 23.6226138,33.6605245" id="Fill-29" fill-opacity="0.26319067" fill="#FFFFFF"></path>
                <path d="M37.4194079,29.9031814 C37.4194079,29.0786102 37.0958124,28.5698285 36.3364893,28.5698285 C35.7558971,28.5698285 35.0973634,29.0304061 34.7958055,29.5634658 L34.7958055,34 L34.2041945,34 L34.2041945,29.9031814 C34.2041945,29.0786102 33.8916179,28.5698285 33.121276,28.5698285 C32.5518646,28.5698285 31.9041876,29.0425451 31.5805921,29.5759566 L31.5805921,34 L31,34 L31,28.1454919 L31.5805921,28.1454919 L31.5805921,29.0304061 C31.8038843,28.6546254 32.5408459,28 33.3222065,28 C34.1594713,28 34.6060557,28.5334115 34.7400634,29.1030641 C35.0414593,28.5576895 35.76724,28 36.526239,28 C37.5198731,28 38,28.6062454 38,29.7819675 L38,34 L37.4194079,34 L37.4194079,29.9031814 Z" id="Fill-31" fill-opacity="0.26319067" fill="#FFFFFF"></path>
                <path d="M42.4598303,31.4793885 C42.1066541,30.9587771 41.5455231,30.6865338 40.9429218,30.6865338 C40.1118567,30.6865338 39.5713855,31.2899347 39.5713855,32.1064926 C39.5713855,32.9111989 40.1118567,33.5149433 40.9429218,33.5149433 C41.5455231,33.5149433 42.1066541,33.2543799 42.4598303,32.7337685 L42.4598303,31.4793885 Z M42.4598303,33.1834421 C42.0130066,33.7397801 41.4520264,34 40.7557776,34 C39.8933459,34 39,33.3254895 39,32.0948128 C39,30.8521127 39.8830914,30.2014772 40.7557776,30.2014772 C41.4520264,30.2014772 42.0234119,30.4615252 42.4598303,31.0176915 L42.4598303,29.8582961 C42.4598303,29.0061834 41.857229,28.5444864 41.1092554,28.5444864 C40.4855419,28.5444864 39.9973987,28.7930265 39.5403205,29.3849193 L39.238869,28.9586053 C39.7583789,28.3196496 40.3401697,28 41.1713855,28 C42.1897455,28 43,28.556338 43,29.8344212 L43,33.8581244 L42.4598303,33.8581244 L42.4598303,33.1834421 Z" id="Fill-33" fill-opacity="0.26319067" fill="#FFFFFF"></path>
                <path d="M49.4498541,30.0363583 C49.4498541,28.9091922 48.9523883,28.5698285 48.2117954,28.5698285 C47.555675,28.5698285 46.8783597,29.042721 46.5502995,29.5759566 L46.5502995,34 L46,34 L46,28.1454919 L46.5502995,28.1454919 L46.5502995,29.0304061 C46.9207495,28.5212725 47.6507449,28 48.3916449,28 C49.4285056,28 50,28.5817915 50,29.9031814 L50,34 L49.4498541,34 L49.4498541,30.0363583 Z" id="Fill-35" fill-opacity="0.26319067" fill="#FFFFFF"></path>
                <path d="M55.45981,31.4793885 C55.1066204,30.9587771 54.5454683,30.6865338 53.9428442,30.6865338 C53.1117479,30.6865338 52.5712562,31.2899347 52.5712562,32.1064926 C52.5712562,32.9111989 53.1117479,33.5149433 53.9428442,33.5149433 C54.5454683,33.5149433 55.1066204,33.2543799 55.45981,32.7337685 L55.45981,31.4793885 Z M55.45981,33.1834421 C55.0129694,33.7397801 54.451968,34 53.755693,34 C52.8932288,34 52,33.3254895 52,32.0948128 C52,30.8521127 52.8829739,30.2014772 53.755693,30.2014772 C54.451968,30.2014772 55.0233751,30.4615252 55.45981,31.0176915 L55.45981,29.8582961 C55.45981,29.0061834 54.8573368,28.5444864 54.1091841,28.5444864 C53.4854471,28.5444864 52.9974363,28.7930265 52.54019,29.3849193 L52.2387272,28.9586053 C52.7584075,28.3196496 53.3400694,28 54.1713165,28 C55.189715,28 56,28.556338 56,29.8344212 L56,33.8581244 L55.45981,33.8581244 L55.45981,33.1834421 Z" id="Fill-37" fill-opacity="0.26319067" fill="#FFFFFF"></path>
                <path d="M61.3935368,29.5630658 C61.0730346,29.018967 60.3408615,28.5444349 59.5743133,28.5444349 C58.3502607,28.5444349 57.6406722,29.5744922 57.6406722,30.9293621 C57.6406722,32.2837279 58.3502607,33.3025268 59.5743133,33.3025268 C60.3408615,33.3025268 61.0730346,32.8278267 61.3935368,32.2837279 L61.3935368,29.5630658 Z M57.6750473,34.691844 C58.1558006,35.2705581 58.6818891,35.4790901 59.5057292,35.4790901 C60.512571,35.4790901 61.3935368,34.9697746 61.3935368,33.6844714 L61.3935368,32.8046378 C61.0046166,33.3719255 60.2951941,33.8464576 59.4713541,33.8464576 C58.0068418,33.8464576 57,32.7236447 57,30.9293621 C57,29.1579323 58.0068418,28 59.4713541,28 C60.2609851,28 60.9471587,28.4053015 61.3935368,29.0421559 L61.3935368,28.1389653 L62,28.1389653 L62,33.673045 C62,35.3865026 60.8556578,36 59.5057292,36 C58.579096,36 57.9840911,35.8262513 57.3319605,35.1549497 L57.6750473,34.691844 Z" id="Fill-39" fill-opacity="0.26319067" fill="#FFFFFF"></path>
                <path d="M64.618349,30.7103146 L68.4252566,30.7103146 C68.4143946,29.73983 67.8287891,28.5326501 66.5163718,28.5326501 C65.2799887,28.5326501 64.6614823,29.7159543 64.618349,30.7103146 M66.5272338,28 C68.1214344,28 69,29.3847872 69,31.0294581 L69,31.1953852 L64.618349,31.1953852 C64.6726592,32.4379491 65.4317423,33.4676935 66.6681254,33.4676935 C67.3297651,33.4676935 67.9370946,33.1954424 68.3818085,32.6746443 L68.6747686,33.0770948 C68.1540205,33.6688328 67.4925383,34 66.6248347,34 C65.095334,34 64,32.7576079 64,30.9942458 C64,29.3372076 65.0739248,28 66.5272338,28" id="Fill-41" fill-opacity="0.26319067" fill="#FFFFFF"></path>
                <path d="M72,28.1215333 L72.4837643,28.1215333 L72.4837643,29.1317788 C72.865051,28.4744745 73.3767637,28 74,28 L74,28.693517 C73.9162897,28.6693164 73.8512118,28.6693164 73.7580504,28.6693164 C73.3023695,28.6693164 72.6885844,29.2049108 72.4837643,29.7159512 L72.4837643,34 L72,34 L72,28.1215333 Z" id="Fill-43" fill-opacity="0.26319067" fill="#FFFFFF"></path>
                <path d="M74.337763,32.6389557 C74.6756842,33.1006527 75.2967885,33.4793885 76.0382851,33.4793885 C76.921215,33.4793885 77.4443917,33.0060117 77.4443917,32.343181 C77.4443917,31.6094126 76.7248853,31.3965991 75.9727891,31.1836139 C75.0900174,30.9465819 74.1199177,30.6982137 74.1199177,29.5860529 C74.1199177,28.710237 74.806518,28 75.9946211,28 C76.8992248,28 77.4986553,28.3787358 77.8803987,28.8404328 L77.5641512,29.2782549 C77.2591362,28.8285812 76.6921373,28.5207832 75.9946211,28.5207832 C75.1771872,28.5207832 74.6756842,28.9586053 74.6756842,29.5504981 C74.6756842,30.2014772 75.3515267,30.3787358 76.0816327,30.5800412 C76.9863946,30.8284095 78,31.1006527 78,32.3198214 C78,33.2427001 77.346306,34 76.0273691,34 C75.1771872,34 74.5231767,33.7277568 74,33.1006527 L74.337763,32.6389557 Z" id="Fill-45" fill-opacity="0.26319067" fill="#FFFFFF"></path>
            </g>
        </g>
    </g>
</svg>